solid OpenSCAD_Model
  facet normal -1 0 0
    outer loop
      vertex -12.5 -20 -0.5
      vertex -12.5 -20 0.5
      vertex -12.5 47 -0.5
    endloop
  endfacet
  facet normal -1 0 0
    outer loop
      vertex -12.5 47 -0.5
      vertex -12.5 -20 0.5
      vertex -12.5 47 0.5
    endloop
  endfacet
  facet normal 0 -1 0
    outer loop
      vertex -12.5 -20 0.5
      vertex -12.5 -20 -0.5
      vertex 12.5 -20 -0.5
    endloop
  endfacet
  facet normal 0 -1 0
    outer loop
      vertex 12.5 -20 0.5
      vertex -12.5 -20 0.5
      vertex 12.5 -20 -0.5
    endloop
  endfacet
  facet normal 0 0 -1
    outer loop
      vertex 7.59369 -15.8399 -0.5
      vertex -12.5 47 -0.5
      vertex 12.5 -20 -0.5
    endloop
  endfacet
  facet normal 0 0 -1
    outer loop
      vertex 12.5 -20 -0.5
      vertex -12.5 47 -0.5
      vertex -5 47 -0.5
    endloop
  endfacet
  facet normal 0 0 -1
    outer loop
      vertex 12.5 -20 -0.5
      vertex -5 47 -0.5
      vertex -5 49 -0.5
    endloop
  endfacet
  facet normal 0 0 -1
    outer loop
      vertex 5 47 -0.5
      vertex -5 49 -0.5
      vertex 5 49 -0.5
    endloop
  endfacet
  facet normal 0 0 -1
    outer loop
      vertex 12.5 -20 -0.5
      vertex -5 49 -0.5
      vertex 5 47 -0.5
    endloop
  endfacet
  facet normal 0 0 -1
    outer loop
      vertex -5.33987 -18.0937 -0.5
      vertex 12.5 -20 -0.5
      vertex -6 -18.225 -0.5
    endloop
  endfacet
  facet normal 0 0 -1
    outer loop
      vertex -12.5 -20 -0.5
      vertex -12.5 47 -0.5
      vertex -7.725 -16.5 -0.5
    endloop
  endfacet
  facet normal 0 0 -1
    outer loop
      vertex -12.5 -20 -0.5
      vertex -7.725 -16.5 -0.5
      vertex -7.59369 -17.1601 -0.5
    endloop
  endfacet
  facet normal 0 0 -1
    outer loop
      vertex -12.5 -20 -0.5
      vertex -7.59369 -17.1601 -0.5
      vertex -7.21976 -17.7198 -0.5
    endloop
  endfacet
  facet normal 0 0 -1
    outer loop
      vertex -12.5 -20 -0.5
      vertex -7.21976 -17.7198 -0.5
      vertex -6.66013 -18.0937 -0.5
    endloop
  endfacet
  facet normal 0 0 -1
    outer loop
      vertex -12.5 -20 -0.5
      vertex -6.66013 -18.0937 -0.5
      vertex -6 -18.225 -0.5
    endloop
  endfacet
  facet normal 0 0 -1
    outer loop
      vertex -12.5 -20 -0.5
      vertex -6 -18.225 -0.5
      vertex 12.5 -20 -0.5
    endloop
  endfacet
  facet normal 0 0 -1
    outer loop
      vertex -4.78024 -17.7198 -0.5
      vertex 12.5 -20 -0.5
      vertex -5.33987 -18.0937 -0.5
    endloop
  endfacet
  facet normal 0 0 -1
    outer loop
      vertex -4.40631 -17.1601 -0.5
      vertex 12.5 -20 -0.5
      vertex -4.78024 -17.7198 -0.5
    endloop
  endfacet
  facet normal 0 0 -1
    outer loop
      vertex -4.275 -16.5 -0.5
      vertex 12.5 -20 -0.5
      vertex -4.40631 -17.1601 -0.5
    endloop
  endfacet
  facet normal 0 0 -1
    outer loop
      vertex -4.40631 -15.8399 -0.5
      vertex -12.5 47 -0.5
      vertex -4.275 -16.5 -0.5
    endloop
  endfacet
  facet normal 0 0 -1
    outer loop
      vertex 6.66013 -18.0937 -0.5
      vertex 12.5 -20 -0.5
      vertex 6 -18.225 -0.5
    endloop
  endfacet
  facet normal 0 0 -1
    outer loop
      vertex -4.78024 -15.2802 -0.5
      vertex -12.5 47 -0.5
      vertex -4.40631 -15.8399 -0.5
    endloop
  endfacet
  facet normal 0 0 -1
    outer loop
      vertex -5.33987 -14.9063 -0.5
      vertex -12.5 47 -0.5
      vertex -4.78024 -15.2802 -0.5
    endloop
  endfacet
  facet normal 0 0 -1
    outer loop
      vertex -6 -14.775 -0.5
      vertex -12.5 47 -0.5
      vertex -5.33987 -14.9063 -0.5
    endloop
  endfacet
  facet normal 0 0 -1
    outer loop
      vertex -6.66013 -14.9063 -0.5
      vertex -12.5 47 -0.5
      vertex -6 -14.775 -0.5
    endloop
  endfacet
  facet normal 0 0 -1
    outer loop
      vertex -7.21976 -15.2802 -0.5
      vertex -12.5 47 -0.5
      vertex -6.66013 -14.9063 -0.5
    endloop
  endfacet
  facet normal 0 0 -1
    outer loop
      vertex -7.59369 -15.8399 -0.5
      vertex -12.5 47 -0.5
      vertex -7.21976 -15.2802 -0.5
    endloop
  endfacet
  facet normal 0 0 -1
    outer loop
      vertex -7.725 -16.5 -0.5
      vertex -12.5 47 -0.5
      vertex -7.59369 -15.8399 -0.5
    endloop
  endfacet
  facet normal 0 0 -1
    outer loop
      vertex -4.275 -16.5 -0.5
      vertex -12.5 47 -0.5
      vertex 4.275 -16.5 -0.5
    endloop
  endfacet
  facet normal 0 0 -1
    outer loop
      vertex -4.275 -16.5 -0.5
      vertex 4.275 -16.5 -0.5
      vertex 4.40631 -17.1601 -0.5
    endloop
  endfacet
  facet normal 0 0 -1
    outer loop
      vertex -4.275 -16.5 -0.5
      vertex 4.40631 -17.1601 -0.5
      vertex 4.78024 -17.7198 -0.5
    endloop
  endfacet
  facet normal 0 0 -1
    outer loop
      vertex -4.275 -16.5 -0.5
      vertex 4.78024 -17.7198 -0.5
      vertex 5.33987 -18.0937 -0.5
    endloop
  endfacet
  facet normal 0 0 -1
    outer loop
      vertex -4.275 -16.5 -0.5
      vertex 5.33987 -18.0937 -0.5
      vertex 12.5 -20 -0.5
    endloop
  endfacet
  facet normal 0 0 -1
    outer loop
      vertex 5.33987 -18.0937 -0.5
      vertex 6 -18.225 -0.5
      vertex 12.5 -20 -0.5
    endloop
  endfacet
  facet normal 0 0 -1
    outer loop
      vertex 7.21976 -17.7198 -0.5
      vertex 12.5 -20 -0.5
      vertex 6.66013 -18.0937 -0.5
    endloop
  endfacet
  facet normal 0 0 -1
    outer loop
      vertex 7.21976 -15.2802 -0.5
      vertex -12.5 47 -0.5
      vertex 7.59369 -15.8399 -0.5
    endloop
  endfacet
  facet normal 0 0 -1
    outer loop
      vertex 6 -14.775 -0.5
      vertex -12.5 47 -0.5
      vertex 6.66013 -14.9063 -0.5
    endloop
  endfacet
  facet normal 0 0 -1
    outer loop
      vertex 7.21976 -17.7198 -0.5
      vertex 7.59369 -17.1601 -0.5
      vertex 12.5 -20 -0.5
    endloop
  endfacet
  facet normal 0 0 -1
    outer loop
      vertex 6.66013 -14.9063 -0.5
      vertex -12.5 47 -0.5
      vertex 7.21976 -15.2802 -0.5
    endloop
  endfacet
  facet normal 0 0 -1
    outer loop
      vertex 7.59369 -17.1601 -0.5
      vertex 7.725 -16.5 -0.5
      vertex 12.5 -20 -0.5
    endloop
  endfacet
  facet normal 0 0 -1
    outer loop
      vertex 7.725 -16.5 -0.5
      vertex 7.59369 -15.8399 -0.5
      vertex 12.5 -20 -0.5
    endloop
  endfacet
  facet normal 0 0 -1
    outer loop
      vertex 5.33987 -14.9063 -0.5
      vertex -12.5 47 -0.5
      vertex 6 -14.775 -0.5
    endloop
  endfacet
  facet normal 0 0 -1
    outer loop
      vertex 4.78024 -15.2802 -0.5
      vertex -12.5 47 -0.5
      vertex 5.33987 -14.9063 -0.5
    endloop
  endfacet
  facet normal 0 0 -1
    outer loop
      vertex 4.40631 -15.8399 -0.5
      vertex -12.5 47 -0.5
      vertex 4.78024 -15.2802 -0.5
    endloop
  endfacet
  facet normal 0 0 -1
    outer loop
      vertex 4.275 -16.5 -0.5
      vertex -12.5 47 -0.5
      vertex 4.40631 -15.8399 -0.5
    endloop
  endfacet
  facet normal 0 0 -1
    outer loop
      vertex 12.5 47 -0.5
      vertex 12.5 -20 -0.5
      vertex 5 47 -0.5
    endloop
  endfacet
  facet normal 0 1 0
    outer loop
      vertex -12.5 47 -0.5
      vertex -12.5 47 0.5
      vertex -5 47 -0.5
    endloop
  endfacet
  facet normal 0 1 0
    outer loop
      vertex -5 47 -0.5
      vertex -12.5 47 0.5
      vertex -5 47 0.5
    endloop
  endfacet
  facet normal 0 0 1
    outer loop
      vertex -5.33987 -18.0937 0.5
      vertex -12.5 -20 0.5
      vertex 12.5 -20 0.5
    endloop
  endfacet
  facet normal 0 0 1
    outer loop
      vertex 5.33987 -18.0937 0.5
      vertex -5.33987 -14.9063 0.5
      vertex -4.78024 -15.2802 0.5
    endloop
  endfacet
  facet normal 0 0 1
    outer loop
      vertex 7.21976 -15.2802 0.5
      vertex 7.59369 -15.8399 0.5
      vertex 12.5 -20 0.5
    endloop
  endfacet
  facet normal 0 0 1
    outer loop
      vertex -12.5 47 0.5
      vertex -12.5 -20 0.5
      vertex -10.5 -13 0.5
    endloop
  endfacet
  facet normal 0 0 1
    outer loop
      vertex -5 47 0.5
      vertex -12.5 47 0.5
      vertex -10.5 45 0.5
    endloop
  endfacet
  facet normal 0 0 1
    outer loop
      vertex 12.5 47 0.5
      vertex 10.5 45 0.5
      vertex 12.5 -20 0.5
    endloop
  endfacet
  facet normal 0 0 1
    outer loop
      vertex 12.5 47 0.5
      vertex 5 47 0.5
      vertex 10.5 45 0.5
    endloop
  endfacet
  facet normal 0 0 1
    outer loop
      vertex 5.33987 -18.0937 0.5
      vertex -4.40631 -15.8399 0.5
      vertex 12.5 -20 0.5
    endloop
  endfacet
  facet normal 0 0 1
    outer loop
      vertex -4.78024 -15.2802 0.5
      vertex -4.40631 -15.8399 0.5
      vertex 5.33987 -18.0937 0.5
    endloop
  endfacet
  facet normal 0 0 1
    outer loop
      vertex -6 -18.225 0.5
      vertex -6.66013 -18.0937 0.5
      vertex -12.5 -20 0.5
    endloop
  endfacet
  facet normal 0 0 1
    outer loop
      vertex -10.5 -13 0.5
      vertex -12.5 -20 0.5
      vertex -7.59369 -17.1601 0.5
    endloop
  endfacet
  facet normal 0 0 1
    outer loop
      vertex -4.40631 -17.1601 0.5
      vertex -4.78024 -17.7198 0.5
      vertex 12.5 -20 0.5
    endloop
  endfacet
  facet normal 0 0 1
    outer loop
      vertex -10.5 -13 0.5
      vertex -7.59369 -17.1601 0.5
      vertex -7.725 -16.5 0.5
    endloop
  endfacet
  facet normal 0 0 1
    outer loop
      vertex 4.78024 -17.7198 0.5
      vertex 4.40631 -17.1601 0.5
      vertex -10.5 -13 0.5
    endloop
  endfacet
  facet normal 0 0 1
    outer loop
      vertex -10.5 -13 0.5
      vertex -7.725 -16.5 0.5
      vertex -7.59369 -15.8399 0.5
    endloop
  endfacet
  facet normal 0 0 1
    outer loop
      vertex -10.5 -13 0.5
      vertex -7.59369 -15.8399 0.5
      vertex -7.21976 -15.2802 0.5
    endloop
  endfacet
  facet normal 0 0 1
    outer loop
      vertex -4.40631 -15.8399 0.5
      vertex -4.275 -16.5 0.5
      vertex 12.5 -20 0.5
    endloop
  endfacet
  facet normal 0 0 1
    outer loop
      vertex -10.5 -13 0.5
      vertex -7.21976 -15.2802 0.5
      vertex -6.66013 -14.9063 0.5
    endloop
  endfacet
  facet normal 0 0 1
    outer loop
      vertex -10.5 -13 0.5
      vertex -6.66013 -14.9063 0.5
      vertex -6 -14.775 0.5
    endloop
  endfacet
  facet normal 0 0 1
    outer loop
      vertex 5.33987 -18.0937 0.5
      vertex 4.78024 -17.7198 0.5
      vertex -5.33987 -14.9063 0.5
    endloop
  endfacet
  facet normal 0 0 1
    outer loop
      vertex -10.5 -13 0.5
      vertex -6 -14.775 0.5
      vertex -5.33987 -14.9063 0.5
    endloop
  endfacet
  facet normal 0 0 1
    outer loop
      vertex -4.78024 -17.7198 0.5
      vertex -5.33987 -18.0937 0.5
      vertex 12.5 -20 0.5
    endloop
  endfacet
  facet normal 0 0 1
    outer loop
      vertex -6 -18.225 0.5
      vertex -12.5 -20 0.5
      vertex -5.33987 -18.0937 0.5
    endloop
  endfacet
  facet normal 0 0 1
    outer loop
      vertex -7.21976 -17.7198 0.5
      vertex -12.5 -20 0.5
      vertex -6.66013 -18.0937 0.5
    endloop
  endfacet
  facet normal 0 0 1
    outer loop
      vertex -7.59369 -17.1601 0.5
      vertex -12.5 -20 0.5
      vertex -7.21976 -17.7198 0.5
    endloop
  endfacet
  facet normal 0 0 1
    outer loop
      vertex 10.5 45 0.5
      vertex 10.5 -13 0.5
      vertex 12.5 -20 0.5
    endloop
  endfacet
  facet normal 0 0 1
    outer loop
      vertex -10.5 45 0.5
      vertex 5 47 0.5
      vertex -5 47 0.5
    endloop
  endfacet
  facet normal 0 0 1
    outer loop
      vertex 7.59369 -17.1601 0.5
      vertex 7.21976 -17.7198 0.5
      vertex 12.5 -20 0.5
    endloop
  endfacet
  facet normal 0 0 1
    outer loop
      vertex -10.5 45 0.5
      vertex 10.5 45 0.5
      vertex 5 47 0.5
    endloop
  endfacet
  facet normal 0 0 1
    outer loop
      vertex 7.21976 -17.7198 0.5
      vertex 6.66013 -18.0937 0.5
      vertex 12.5 -20 0.5
    endloop
  endfacet
  facet normal 0 0 1
    outer loop
      vertex 7.59369 -15.8399 0.5
      vertex 7.725 -16.5 0.5
      vertex 12.5 -20 0.5
    endloop
  endfacet
  facet normal 0 0 1
    outer loop
      vertex 6.66013 -18.0937 0.5
      vertex 6 -18.225 0.5
      vertex 12.5 -20 0.5
    endloop
  endfacet
  facet normal 0 0 1
    outer loop
      vertex 6 -18.225 0.5
      vertex 5.33987 -18.0937 0.5
      vertex 12.5 -20 0.5
    endloop
  endfacet
  facet normal 0 0 1
    outer loop
      vertex -4.275 -16.5 0.5
      vertex -4.40631 -17.1601 0.5
      vertex 12.5 -20 0.5
    endloop
  endfacet
  facet normal 0 0 1
    outer loop
      vertex 7.725 -16.5 0.5
      vertex 7.59369 -17.1601 0.5
      vertex 12.5 -20 0.5
    endloop
  endfacet
  facet normal 0 0 1
    outer loop
      vertex -10.5 -13 0.5
      vertex -5.33987 -14.9063 0.5
      vertex 4.78024 -17.7198 0.5
    endloop
  endfacet
  facet normal 0 0 1
    outer loop
      vertex -10.5 -13 0.5
      vertex -10.5 45 0.5
      vertex -12.5 47 0.5
    endloop
  endfacet
  facet normal 0 0 1
    outer loop
      vertex 10.5 -13 0.5
      vertex 7.21976 -15.2802 0.5
      vertex 12.5 -20 0.5
    endloop
  endfacet
  facet normal 0 0 1
    outer loop
      vertex 10.5 -13 0.5
      vertex 6.66013 -14.9063 0.5
      vertex 7.21976 -15.2802 0.5
    endloop
  endfacet
  facet normal 0 0 1
    outer loop
      vertex 10.5 -13 0.5
      vertex 6 -14.775 0.5
      vertex 6.66013 -14.9063 0.5
    endloop
  endfacet
  facet normal 0 0 1
    outer loop
      vertex 10.5 -13 0.5
      vertex 5.33987 -14.9063 0.5
      vertex 6 -14.775 0.5
    endloop
  endfacet
  facet normal 0 0 1
    outer loop
      vertex 4.275 -16.5 0.5
      vertex -10.5 -13 0.5
      vertex 4.40631 -17.1601 0.5
    endloop
  endfacet
  facet normal 0 0 1
    outer loop
      vertex 4.40631 -15.8399 0.5
      vertex -10.5 -13 0.5
      vertex 4.275 -16.5 0.5
    endloop
  endfacet
  facet normal 0 0 1
    outer loop
      vertex 4.78024 -15.2802 0.5
      vertex -10.5 -13 0.5
      vertex 4.40631 -15.8399 0.5
    endloop
  endfacet
  facet normal 0 0 1
    outer loop
      vertex 5.33987 -14.9063 0.5
      vertex -10.5 -13 0.5
      vertex 4.78024 -15.2802 0.5
    endloop
  endfacet
  facet normal 0 0 1
    outer loop
      vertex 10.5 -13 0.5
      vertex -10.5 -13 0.5
      vertex 5.33987 -14.9063 0.5
    endloop
  endfacet
  facet normal 1 0 0
    outer loop
      vertex 12.5 -20 0.5
      vertex 12.5 -20 -0.5
      vertex 12.5 47 -0.5
    endloop
  endfacet
  facet normal 1 0 0
    outer loop
      vertex 12.5 47 0.5
      vertex 12.5 -20 0.5
      vertex 12.5 47 -0.5
    endloop
  endfacet
  facet normal 0 1 0
    outer loop
      vertex 5 47 -0.5
      vertex 5 47 0.5
      vertex 12.5 47 -0.5
    endloop
  endfacet
  facet normal 0 1 0
    outer loop
      vertex 12.5 47 -0.5
      vertex 5 47 0.5
      vertex 12.5 47 0.5
    endloop
  endfacet
  facet normal 1 0 0
    outer loop
      vertex 5 47 0.5
      vertex 5 47 -0.5
      vertex 5 49 -0.5
    endloop
  endfacet
  facet normal 1 0 0
    outer loop
      vertex 5 47 8.5
      vertex 5 47 0.5
      vertex 5 49 8.5
    endloop
  endfacet
  facet normal 1 0 0
    outer loop
      vertex 5 49 8.5
      vertex 5 47 0.5
      vertex 5 49 -0.5
    endloop
  endfacet
  facet normal 0 1 0
    outer loop
      vertex -5 49 -0.5
      vertex -5 49 8.5
      vertex 5 49 -0.5
    endloop
  endfacet
  facet normal 0 1 0
    outer loop
      vertex 5 49 -0.5
      vertex -5 49 8.5
      vertex 5 49 8.5
    endloop
  endfacet
  facet normal -1 0 0
    outer loop
      vertex -5 47 -0.5
      vertex -5 47 0.5
      vertex -5 49 -0.5
    endloop
  endfacet
  facet normal -1 0 0
    outer loop
      vertex -5 49 -0.5
      vertex -5 47 0.5
      vertex -5 47 8.5
    endloop
  endfacet
  facet normal -1 0 0
    outer loop
      vertex -5 49 -0.5
      vertex -5 47 8.5
      vertex -5 49 8.5
    endloop
  endfacet
  facet normal 0.980785 -0.195091 0
    outer loop
      vertex -7.59369 -15.8399 -0.5
      vertex -7.59369 -15.8399 0.5
      vertex -7.725 -16.5 0.5
    endloop
  endfacet
  facet normal 0.980785 -0.195091 0
    outer loop
      vertex -7.725 -16.5 -0.5
      vertex -7.59369 -15.8399 -0.5
      vertex -7.725 -16.5 0.5
    endloop
  endfacet
  facet normal 0.980785 0.195091 0
    outer loop
      vertex -7.725 -16.5 0.5
      vertex -7.59369 -17.1601 0.5
      vertex -7.59369 -17.1601 -0.5
    endloop
  endfacet
  facet normal 0.980785 0.195091 0
    outer loop
      vertex -7.725 -16.5 -0.5
      vertex -7.725 -16.5 0.5
      vertex -7.59369 -17.1601 -0.5
    endloop
  endfacet
  facet normal 0.831469 -0.55557 0
    outer loop
      vertex -7.21976 -15.2802 -0.5
      vertex -7.21976 -15.2802 0.5
      vertex -7.59369 -15.8399 0.5
    endloop
  endfacet
  facet normal 0.831469 -0.55557 0
    outer loop
      vertex -7.59369 -15.8399 -0.5
      vertex -7.21976 -15.2802 -0.5
      vertex -7.59369 -15.8399 0.5
    endloop
  endfacet
  facet normal 0.55557 -0.831469 0
    outer loop
      vertex -6.66013 -14.9063 -0.5
      vertex -6.66013 -14.9063 0.5
      vertex -7.21976 -15.2802 0.5
    endloop
  endfacet
  facet normal 0.55557 -0.831469 0
    outer loop
      vertex -7.21976 -15.2802 -0.5
      vertex -6.66013 -14.9063 -0.5
      vertex -7.21976 -15.2802 0.5
    endloop
  endfacet
  facet normal 0.195091 -0.980785 0
    outer loop
      vertex -6 -14.775 -0.5
      vertex -6 -14.775 0.5
      vertex -6.66013 -14.9063 0.5
    endloop
  endfacet
  facet normal 0.195091 -0.980785 0
    outer loop
      vertex -6.66013 -14.9063 -0.5
      vertex -6 -14.775 -0.5
      vertex -6.66013 -14.9063 0.5
    endloop
  endfacet
  facet normal -0.195091 -0.980785 0
    outer loop
      vertex -5.33987 -14.9063 -0.5
      vertex -5.33987 -14.9063 0.5
      vertex -6 -14.775 0.5
    endloop
  endfacet
  facet normal -0.195091 -0.980785 0
    outer loop
      vertex -6 -14.775 -0.5
      vertex -5.33987 -14.9063 -0.5
      vertex -6 -14.775 0.5
    endloop
  endfacet
  facet normal -0.55557 -0.831469 0
    outer loop
      vertex -4.78024 -15.2802 -0.5
      vertex -4.78024 -15.2802 0.5
      vertex -5.33987 -14.9063 0.5
    endloop
  endfacet
  facet normal -0.55557 -0.831469 0
    outer loop
      vertex -5.33987 -14.9063 -0.5
      vertex -4.78024 -15.2802 -0.5
      vertex -5.33987 -14.9063 0.5
    endloop
  endfacet
  facet normal -0.831469 -0.55557 0
    outer loop
      vertex -4.40631 -15.8399 0.5
      vertex -4.78024 -15.2802 0.5
      vertex -4.40631 -15.8399 -0.5
    endloop
  endfacet
  facet normal -0.831469 -0.55557 0
    outer loop
      vertex -4.40631 -15.8399 -0.5
      vertex -4.78024 -15.2802 0.5
      vertex -4.78024 -15.2802 -0.5
    endloop
  endfacet
  facet normal -0.980785 -0.195091 0
    outer loop
      vertex -4.275 -16.5 0.5
      vertex -4.40631 -15.8399 0.5
      vertex -4.275 -16.5 -0.5
    endloop
  endfacet
  facet normal -0.980785 -0.195091 0
    outer loop
      vertex -4.275 -16.5 -0.5
      vertex -4.40631 -15.8399 0.5
      vertex -4.40631 -15.8399 -0.5
    endloop
  endfacet
  facet normal -0.980785 0.195091 0
    outer loop
      vertex -4.275 -16.5 0.5
      vertex -4.275 -16.5 -0.5
      vertex -4.40631 -17.1601 0.5
    endloop
  endfacet
  facet normal -0.980785 0.195091 0
    outer loop
      vertex -4.40631 -17.1601 0.5
      vertex -4.275 -16.5 -0.5
      vertex -4.40631 -17.1601 -0.5
    endloop
  endfacet
  facet normal -0.831469 0.55557 0
    outer loop
      vertex -4.40631 -17.1601 0.5
      vertex -4.40631 -17.1601 -0.5
      vertex -4.78024 -17.7198 0.5
    endloop
  endfacet
  facet normal -0.831469 0.55557 0
    outer loop
      vertex -4.78024 -17.7198 0.5
      vertex -4.40631 -17.1601 -0.5
      vertex -4.78024 -17.7198 -0.5
    endloop
  endfacet
  facet normal -0.55557 0.831469 0
    outer loop
      vertex -4.78024 -17.7198 0.5
      vertex -4.78024 -17.7198 -0.5
      vertex -5.33987 -18.0937 0.5
    endloop
  endfacet
  facet normal -0.55557 0.831469 0
    outer loop
      vertex -5.33987 -18.0937 0.5
      vertex -4.78024 -17.7198 -0.5
      vertex -5.33987 -18.0937 -0.5
    endloop
  endfacet
  facet normal -0.195091 0.980785 0
    outer loop
      vertex -5.33987 -18.0937 0.5
      vertex -5.33987 -18.0937 -0.5
      vertex -6 -18.225 0.5
    endloop
  endfacet
  facet normal -0.195091 0.980785 0
    outer loop
      vertex -6 -18.225 0.5
      vertex -5.33987 -18.0937 -0.5
      vertex -6 -18.225 -0.5
    endloop
  endfacet
  facet normal 0.195091 0.980785 0
    outer loop
      vertex -6 -18.225 0.5
      vertex -6 -18.225 -0.5
      vertex -6.66013 -18.0937 0.5
    endloop
  endfacet
  facet normal 0.195091 0.980785 0
    outer loop
      vertex -6.66013 -18.0937 0.5
      vertex -6 -18.225 -0.5
      vertex -6.66013 -18.0937 -0.5
    endloop
  endfacet
  facet normal 0.55557 0.831469 0
    outer loop
      vertex -6.66013 -18.0937 0.5
      vertex -6.66013 -18.0937 -0.5
      vertex -7.21976 -17.7198 0.5
    endloop
  endfacet
  facet normal 0.55557 0.831469 0
    outer loop
      vertex -7.21976 -17.7198 0.5
      vertex -6.66013 -18.0937 -0.5
      vertex -7.21976 -17.7198 -0.5
    endloop
  endfacet
  facet normal 0.831469 0.55557 0
    outer loop
      vertex -7.59369 -17.1601 0.5
      vertex -7.21976 -17.7198 0.5
      vertex -7.21976 -17.7198 -0.5
    endloop
  endfacet
  facet normal 0.831469 0.55557 0
    outer loop
      vertex -7.59369 -17.1601 -0.5
      vertex -7.59369 -17.1601 0.5
      vertex -7.21976 -17.7198 -0.5
    endloop
  endfacet
  facet normal 0.980785 -0.195091 0
    outer loop
      vertex 4.40631 -15.8399 -0.5
      vertex 4.40631 -15.8399 0.5
      vertex 4.275 -16.5 0.5
    endloop
  endfacet
  facet normal 0.980785 -0.195091 0
    outer loop
      vertex 4.275 -16.5 -0.5
      vertex 4.40631 -15.8399 -0.5
      vertex 4.275 -16.5 0.5
    endloop
  endfacet
  facet normal 0.980785 0.195091 0
    outer loop
      vertex 4.275 -16.5 0.5
      vertex 4.40631 -17.1601 0.5
      vertex 4.40631 -17.1601 -0.5
    endloop
  endfacet
  facet normal 0.980785 0.195091 0
    outer loop
      vertex 4.275 -16.5 -0.5
      vertex 4.275 -16.5 0.5
      vertex 4.40631 -17.1601 -0.5
    endloop
  endfacet
  facet normal 0.831469 -0.55557 0
    outer loop
      vertex 4.78024 -15.2802 -0.5
      vertex 4.78024 -15.2802 0.5
      vertex 4.40631 -15.8399 0.5
    endloop
  endfacet
  facet normal 0.831469 -0.55557 0
    outer loop
      vertex 4.40631 -15.8399 -0.5
      vertex 4.78024 -15.2802 -0.5
      vertex 4.40631 -15.8399 0.5
    endloop
  endfacet
  facet normal 0.55557 -0.831469 0
    outer loop
      vertex 5.33987 -14.9063 -0.5
      vertex 5.33987 -14.9063 0.5
      vertex 4.78024 -15.2802 0.5
    endloop
  endfacet
  facet normal 0.55557 -0.831469 0
    outer loop
      vertex 4.78024 -15.2802 -0.5
      vertex 5.33987 -14.9063 -0.5
      vertex 4.78024 -15.2802 0.5
    endloop
  endfacet
  facet normal 0.195091 -0.980785 0
    outer loop
      vertex 6 -14.775 -0.5
      vertex 6 -14.775 0.5
      vertex 5.33987 -14.9063 0.5
    endloop
  endfacet
  facet normal 0.195091 -0.980785 0
    outer loop
      vertex 5.33987 -14.9063 -0.5
      vertex 6 -14.775 -0.5
      vertex 5.33987 -14.9063 0.5
    endloop
  endfacet
  facet normal -0.195091 -0.980785 0
    outer loop
      vertex 6.66013 -14.9063 -0.5
      vertex 6.66013 -14.9063 0.5
      vertex 6 -14.775 0.5
    endloop
  endfacet
  facet normal -0.195091 -0.980785 0
    outer loop
      vertex 6 -14.775 -0.5
      vertex 6.66013 -14.9063 -0.5
      vertex 6 -14.775 0.5
    endloop
  endfacet
  facet normal -0.55557 -0.831469 0
    outer loop
      vertex 7.21976 -15.2802 -0.5
      vertex 7.21976 -15.2802 0.5
      vertex 6.66013 -14.9063 0.5
    endloop
  endfacet
  facet normal -0.55557 -0.831469 0
    outer loop
      vertex 6.66013 -14.9063 -0.5
      vertex 7.21976 -15.2802 -0.5
      vertex 6.66013 -14.9063 0.5
    endloop
  endfacet
  facet normal -0.831469 -0.55557 0
    outer loop
      vertex 7.59369 -15.8399 0.5
      vertex 7.21976 -15.2802 0.5
      vertex 7.59369 -15.8399 -0.5
    endloop
  endfacet
  facet normal -0.831469 -0.55557 0
    outer loop
      vertex 7.59369 -15.8399 -0.5
      vertex 7.21976 -15.2802 0.5
      vertex 7.21976 -15.2802 -0.5
    endloop
  endfacet
  facet normal -0.980785 -0.195091 0
    outer loop
      vertex 7.725 -16.5 0.5
      vertex 7.59369 -15.8399 0.5
      vertex 7.725 -16.5 -0.5
    endloop
  endfacet
  facet normal -0.980785 -0.195091 0
    outer loop
      vertex 7.725 -16.5 -0.5
      vertex 7.59369 -15.8399 0.5
      vertex 7.59369 -15.8399 -0.5
    endloop
  endfacet
  facet normal -0.980785 0.195091 0
    outer loop
      vertex 7.725 -16.5 0.5
      vertex 7.725 -16.5 -0.5
      vertex 7.59369 -17.1601 0.5
    endloop
  endfacet
  facet normal -0.980785 0.195091 0
    outer loop
      vertex 7.59369 -17.1601 0.5
      vertex 7.725 -16.5 -0.5
      vertex 7.59369 -17.1601 -0.5
    endloop
  endfacet
  facet normal -0.831469 0.55557 0
    outer loop
      vertex 7.59369 -17.1601 0.5
      vertex 7.59369 -17.1601 -0.5
      vertex 7.21976 -17.7198 0.5
    endloop
  endfacet
  facet normal -0.831469 0.55557 0
    outer loop
      vertex 7.21976 -17.7198 0.5
      vertex 7.59369 -17.1601 -0.5
      vertex 7.21976 -17.7198 -0.5
    endloop
  endfacet
  facet normal -0.55557 0.831469 0
    outer loop
      vertex 7.21976 -17.7198 0.5
      vertex 7.21976 -17.7198 -0.5
      vertex 6.66013 -18.0937 0.5
    endloop
  endfacet
  facet normal -0.55557 0.831469 0
    outer loop
      vertex 6.66013 -18.0937 0.5
      vertex 7.21976 -17.7198 -0.5
      vertex 6.66013 -18.0937 -0.5
    endloop
  endfacet
  facet normal -0.195091 0.980785 0
    outer loop
      vertex 6.66013 -18.0937 0.5
      vertex 6.66013 -18.0937 -0.5
      vertex 6 -18.225 0.5
    endloop
  endfacet
  facet normal -0.195091 0.980785 0
    outer loop
      vertex 6 -18.225 0.5
      vertex 6.66013 -18.0937 -0.5
      vertex 6 -18.225 -0.5
    endloop
  endfacet
  facet normal 0.195091 0.980785 0
    outer loop
      vertex 6 -18.225 0.5
      vertex 6 -18.225 -0.5
      vertex 5.33987 -18.0937 0.5
    endloop
  endfacet
  facet normal 0.195091 0.980785 0
    outer loop
      vertex 5.33987 -18.0937 0.5
      vertex 6 -18.225 -0.5
      vertex 5.33987 -18.0937 -0.5
    endloop
  endfacet
  facet normal 0.55557 0.831469 0
    outer loop
      vertex 5.33987 -18.0937 0.5
      vertex 5.33987 -18.0937 -0.5
      vertex 4.78024 -17.7198 0.5
    endloop
  endfacet
  facet normal 0.55557 0.831469 0
    outer loop
      vertex 4.78024 -17.7198 0.5
      vertex 5.33987 -18.0937 -0.5
      vertex 4.78024 -17.7198 -0.5
    endloop
  endfacet
  facet normal 0.831469 0.55557 0
    outer loop
      vertex 4.40631 -17.1601 0.5
      vertex 4.78024 -17.7198 0.5
      vertex 4.78024 -17.7198 -0.5
    endloop
  endfacet
  facet normal 0.831469 0.55557 0
    outer loop
      vertex 4.40631 -17.1601 -0.5
      vertex 4.40631 -17.1601 0.5
      vertex 4.78024 -17.7198 -0.5
    endloop
  endfacet
  facet normal 0 -1 0
    outer loop
      vertex -1.75 47 5.8
      vertex -5 47 0.5
      vertex 5 47 0.5
    endloop
  endfacet
  facet normal 0 -1 0
    outer loop
      vertex -5 47 8.5
      vertex -5 47 0.5
      vertex -1.75 47 5.8
    endloop
  endfacet
  facet normal 0 -1 0
    outer loop
      vertex 5 47 8.5
      vertex -5 47 8.5
      vertex -1.75 47 7.2
    endloop
  endfacet
  facet normal 0 -1 0
    outer loop
      vertex 5 47 8.5
      vertex 1.75 47 7.2
      vertex 5 47 0.5
    endloop
  endfacet
  facet normal 0 -1 0
    outer loop
      vertex 5 47 8.5
      vertex -1.75 47 7.2
      vertex 1.75 47 7.2
    endloop
  endfacet
  facet normal 0 -1 0
    outer loop
      vertex 1.75 47 7.2
      vertex 1.75 47 5.8
      vertex 5 47 0.5
    endloop
  endfacet
  facet normal 0 -1 0
    outer loop
      vertex -1.75 47 5.8
      vertex -1.75 47 7.2
      vertex -5 47 8.5
    endloop
  endfacet
  facet normal 0 -1 0
    outer loop
      vertex 1.75 47 5.8
      vertex -1.75 47 5.8
      vertex 5 47 0.5
    endloop
  endfacet
  facet normal -1 0 0
    outer loop
      vertex -10.5 -13 0.5
      vertex -10.5 -13 1.4
      vertex -10.5 45 0.5
    endloop
  endfacet
  facet normal -1 0 0
    outer loop
      vertex -10.5 45 0.5
      vertex -10.5 -13 1.4
      vertex -10.5 45 1.4
    endloop
  endfacet
  facet normal 0 -1 0
    outer loop
      vertex -10.5 -13 1.4
      vertex -10.5 -13 0.5
      vertex 10.5 -13 0.5
    endloop
  endfacet
  facet normal 0 -1 0
    outer loop
      vertex 10.5 -13 1.4
      vertex -10.5 -13 1.4
      vertex 10.5 -13 0.5
    endloop
  endfacet
  facet normal 1 0 0
    outer loop
      vertex 10.5 -13 1.4
      vertex 10.5 -13 0.5
      vertex 10.5 45 0.5
    endloop
  endfacet
  facet normal 1 0 0
    outer loop
      vertex 10.5 45 1.4
      vertex 10.5 -13 1.4
      vertex 10.5 45 0.5
    endloop
  endfacet
  facet normal 0 1 0
    outer loop
      vertex -10.5 45 0.5
      vertex -10.5 45 1.4
      vertex 10.5 45 0.5
    endloop
  endfacet
  facet normal 0 1 0
    outer loop
      vertex 10.5 45 0.5
      vertex -10.5 45 1.4
      vertex 10.5 45 1.4
    endloop
  endfacet
  facet normal 0 0 1
    outer loop
      vertex -5 49 8.5
      vertex -5 47 8.5
      vertex 5 47 8.5
    endloop
  endfacet
  facet normal 0 0 1
    outer loop
      vertex 5 49 8.5
      vertex -5 49 8.5
      vertex 5 47 8.5
    endloop
  endfacet
  facet normal -1 0 -2.22045e-016
    outer loop
      vertex -1.75 47 7.2
      vertex -1.75 47 5.8
      vertex -1.75 46.7321 7.14672
    endloop
  endfacet
  facet normal -1 0 -2.22045e-016
    outer loop
      vertex -1.75 46.7321 7.14672
      vertex -1.75 47 5.8
      vertex -1.75 46.7321 5.85328
    endloop
  endfacet
  facet normal -1 0 -2.22045e-016
    outer loop
      vertex -1.75 46.7321 7.14672
      vertex -1.75 46.7321 5.85328
      vertex -1.75 46.505 6.00502
    endloop
  endfacet
  facet normal -1 0 -2.22045e-016
    outer loop
      vertex -1.75 46.7321 7.14672
      vertex -1.75 46.505 6.00502
      vertex -1.75 46.3533 6.23212
    endloop
  endfacet
  facet normal -1 0 -2.22045e-016
    outer loop
      vertex -1.75 46.7321 7.14672
      vertex -1.75 46.3533 6.23212
      vertex -1.75 46.3 6.5
    endloop
  endfacet
  facet normal -1 0 -2.22045e-016
    outer loop
      vertex -1.75 46.7321 7.14672
      vertex -1.75 46.3 6.5
      vertex -1.75 46.3533 6.76788
    endloop
  endfacet
  facet normal -1 0 -2.22045e-016
    outer loop
      vertex -1.75 46.7321 7.14672
      vertex -1.75 46.3533 6.76788
      vertex -1.75 46.505 6.99497
    endloop
  endfacet
  facet normal 2.17778e-016 -0.195089 -0.980785
    outer loop
      vertex -1.75 46.7321 5.85328
      vertex -1.75 47 5.8
      vertex 1.75 46.7321 5.85328
    endloop
  endfacet
  facet normal 2.17778e-016 -0.195089 -0.980785
    outer loop
      vertex 1.75 46.7321 5.85328
      vertex -1.75 47 5.8
      vertex 1.75 47 5.8
    endloop
  endfacet
  facet normal 1 0 2.22045e-016
    outer loop
      vertex 1.75 47 5.8
      vertex 1.75 47 7.2
      vertex 1.75 46.7321 7.14672
    endloop
  endfacet
  facet normal 1 0 2.22045e-016
    outer loop
      vertex 1.75 46.3533 6.76788
      vertex 1.75 47 5.8
      vertex 1.75 46.505 6.99498
    endloop
  endfacet
  facet normal 1 0 2.22045e-016
    outer loop
      vertex 1.75 46.505 6.99498
      vertex 1.75 47 5.8
      vertex 1.75 46.7321 7.14672
    endloop
  endfacet
  facet normal 1 0 2.22045e-016
    outer loop
      vertex 1.75 46.3 6.5
      vertex 1.75 47 5.8
      vertex 1.75 46.3533 6.76788
    endloop
  endfacet
  facet normal 1 0 2.22045e-016
    outer loop
      vertex 1.75 46.3533 6.23212
      vertex 1.75 47 5.8
      vertex 1.75 46.3 6.5
    endloop
  endfacet
  facet normal 1 0 2.22045e-016
    outer loop
      vertex 1.75 46.505 6.00502
      vertex 1.75 47 5.8
      vertex 1.75 46.3533 6.23212
    endloop
  endfacet
  facet normal 1 0 2.22045e-016
    outer loop
      vertex 1.75 46.7321 5.85328
      vertex 1.75 47 5.8
      vertex 1.75 46.505 6.00502
    endloop
  endfacet
  facet normal -2.17778e-016 -0.195089 0.980785
    outer loop
      vertex 1.75 47 7.2
      vertex -1.75 47 7.2
      vertex -1.75 46.7321 7.14672
    endloop
  endfacet
  facet normal -2.17778e-016 -0.195089 0.980785
    outer loop
      vertex 1.75 46.7321 7.14672
      vertex 1.75 47 7.2
      vertex -1.75 46.7321 7.14672
    endloop
  endfacet
  facet normal 0 0 1
    outer loop
      vertex -9.75 -12.25 1.4
      vertex -10.5 -13 1.4
      vertex 10.5 -13 1.4
    endloop
  endfacet
  facet normal 0 0 1
    outer loop
      vertex 9.75 -12.25 1.4
      vertex -9.75 -12.25 1.4
      vertex 10.5 -13 1.4
    endloop
  endfacet
  facet normal 0 0 1
    outer loop
      vertex -10.5 45 1.4
      vertex -10.5 -13 1.4
      vertex -9.75 -12.25 1.4
    endloop
  endfacet
  facet normal 0 0 1
    outer loop
      vertex 10.5 45 1.4
      vertex -10.5 45 1.4
      vertex -9.75 44.25 1.4
    endloop
  endfacet
  facet normal 0 0 1
    outer loop
      vertex 10.5 45 1.4
      vertex 9.75 44.25 1.4
      vertex 10.5 -13 1.4
    endloop
  endfacet
  facet normal 0 0 1
    outer loop
      vertex 10.5 45 1.4
      vertex -9.75 44.25 1.4
      vertex 9.75 44.25 1.4
    endloop
  endfacet
  facet normal 0 0 1
    outer loop
      vertex 9.75 44.25 1.4
      vertex 9.75 -12.25 1.4
      vertex 10.5 -13 1.4
    endloop
  endfacet
  facet normal 0 0 1
    outer loop
      vertex -9.75 -12.25 1.4
      vertex -9.75 44.25 1.4
      vertex -10.5 45 1.4
    endloop
  endfacet
  facet normal -1.84623e-016 -0.555569 0.83147
    outer loop
      vertex 1.75 46.7321 7.14672
      vertex -1.75 46.7321 7.14672
      vertex -1.75 46.505 6.99497
    endloop
  endfacet
  facet normal -1.84623e-016 -0.555569 0.83147
    outer loop
      vertex 1.75 46.505 6.99498
      vertex 1.75 46.7321 7.14672
      vertex -1.75 46.505 6.99497
    endloop
  endfacet
  facet normal -1.23361e-016 -0.83147 0.555569
    outer loop
      vertex 1.75 46.505 6.99498
      vertex -1.75 46.505 6.99497
      vertex -1.75 46.3533 6.76788
    endloop
  endfacet
  facet normal -1.23361e-016 -0.83147 0.555569
    outer loop
      vertex 1.75 46.3533 6.76788
      vertex 1.75 46.505 6.99498
      vertex -1.75 46.3533 6.76788
    endloop
  endfacet
  facet normal -4.33186e-017 -0.980785 0.195089
    outer loop
      vertex 1.75 46.3533 6.76788
      vertex -1.75 46.3533 6.76788
      vertex -1.75 46.3 6.5
    endloop
  endfacet
  facet normal -4.33186e-017 -0.980785 0.195089
    outer loop
      vertex 1.75 46.3 6.5
      vertex 1.75 46.3533 6.76788
      vertex -1.75 46.3 6.5
    endloop
  endfacet
  facet normal 4.33186e-017 -0.980785 -0.195089
    outer loop
      vertex 1.75 46.3 6.5
      vertex -1.75 46.3 6.5
      vertex -1.75 46.3533 6.23212
    endloop
  endfacet
  facet normal 4.33186e-017 -0.980785 -0.195089
    outer loop
      vertex 1.75 46.3533 6.23212
      vertex 1.75 46.3 6.5
      vertex -1.75 46.3533 6.23212
    endloop
  endfacet
  facet normal 1.23361e-016 -0.83147 -0.555569
    outer loop
      vertex 1.75 46.3533 6.23212
      vertex -1.75 46.3533 6.23212
      vertex -1.75 46.505 6.00502
    endloop
  endfacet
  facet normal 1.23361e-016 -0.83147 -0.555569
    outer loop
      vertex 1.75 46.505 6.00502
      vertex 1.75 46.3533 6.23212
      vertex -1.75 46.505 6.00502
    endloop
  endfacet
  facet normal 1.84623e-016 -0.555569 -0.83147
    outer loop
      vertex -1.75 46.505 6.00502
      vertex -1.75 46.7321 5.85328
      vertex 1.75 46.505 6.00502
    endloop
  endfacet
  facet normal 1.84623e-016 -0.555569 -0.83147
    outer loop
      vertex 1.75 46.505 6.00502
      vertex -1.75 46.7321 5.85328
      vertex 1.75 46.7321 5.85328
    endloop
  endfacet
  facet normal 1 0 0
    outer loop
      vertex -9.75 44.25 0.5
      vertex -9.75 44.25 1.4
      vertex -9.75 -12.25 1.4
    endloop
  endfacet
  facet normal 1 0 0
    outer loop
      vertex -9.75 -12.25 0.5
      vertex -9.75 44.25 0.5
      vertex -9.75 -12.25 1.4
    endloop
  endfacet
  facet normal 0 1 0
    outer loop
      vertex 9.75 -12.25 1.4
      vertex 9.75 -12.25 0.5
      vertex -9.75 -12.25 1.4
    endloop
  endfacet
  facet normal 0 1 0
    outer loop
      vertex -9.75 -12.25 1.4
      vertex 9.75 -12.25 0.5
      vertex -9.75 -12.25 0.5
    endloop
  endfacet
  facet normal -1 0 0
    outer loop
      vertex 9.75 44.25 1.4
      vertex 9.75 44.25 0.5
      vertex 9.75 -12.25 1.4
    endloop
  endfacet
  facet normal -1 0 0
    outer loop
      vertex 9.75 -12.25 1.4
      vertex 9.75 44.25 0.5
      vertex 9.75 -12.25 0.5
    endloop
  endfacet
  facet normal 0 -1 0
    outer loop
      vertex 9.75 44.25 0.5
      vertex 9.75 44.25 1.4
      vertex -9.75 44.25 1.4
    endloop
  endfacet
  facet normal 0 -1 0
    outer loop
      vertex -9.75 44.25 0.5
      vertex 9.75 44.25 0.5
      vertex -9.75 44.25 1.4
    endloop
  endfacet
  facet normal 0 0 1
    outer loop
      vertex -9.75 44.25 0.5
      vertex -9.75 -12.25 0.5
      vertex 9.75 -12.25 0.5
    endloop
  endfacet
  facet normal 0 0 1
    outer loop
      vertex 9.75 44.25 0.5
      vertex -9.75 44.25 0.5
      vertex 9.75 -12.25 0.5
    endloop
  endfacet
endsolid OpenSCAD_Model
